2019-07-10 08:40:30,438 [INFO] Activator:176 - 


2019-07-10 08:40:30,454 [INFO] Activator:177 - !SESSION log4j initialized
2019-07-10 08:42:14,310 [INFO] ApplicationProperties:181 - Using Application install path: C:\ST\STM32CubeIDE_1.0.1\STM32CubeIDE\plugins\com.st.stm32cube.common.mx_1.0.0.201906050926
2019-07-10 08:42:14,326 [INFO] DbMcusXml:68 - Set database path to: C:\ST\STM32CubeIDE_1.0.1\STM32CubeIDE\plugins\com.st.stm32cube.common.mx_1.0.0.201906050926\\db\/mcu/
2019-07-10 08:42:14,341 [INFO] DbBoardsPdsc:54 - Set plugin database path to: C:\ST\STM32CubeIDE_1.0.1\STM32CubeIDE\plugins\com.st.stm32cube.common.mx_1.0.0.201906050926\\db\/plugins/boardmanager/
2019-07-10 08:42:14,341 [INFO] DbMcus:262 - Set plugin images path to: C:\ST\STM32CubeIDE_1.0.1\STM32CubeIDE\plugins\com.st.stm32cube.common.mx_1.0.0.201906050926\\db\/plugins/mcufinder/images/
2019-07-10 08:42:14,341 [INFO] DbBoards:225 - Set plugin images path to: C:\ST\STM32CubeIDE_1.0.1\STM32CubeIDE\plugins\com.st.stm32cube.common.mx_1.0.0.201906050926\\db\/plugins/mcufinder/images/
2019-07-10 08:42:14,341 [INFO] APIGFXSelector:72 - Set database path to: C:\ST\STM32CubeIDE_1.0.1\STM32CubeIDE\plugins\com.st.stm32cube.common.mx_1.0.0.201906050926\\db\/plugins/mcufinder/mcu/
2019-07-10 08:42:14,341 [INFO] DbMcusAds:72 - Set database path to: C:\Users\firmware\.stmcufinder\plugins\mcufinder//mcu/
2019-07-10 08:42:14,341 [INFO] DbMcusDocs:90 - Set database path to: C:\Users\firmware\.stmcufinder\plugins\mcufinder//mcu/
2019-07-10 08:42:14,341 [INFO] DbMcusJson:59 - Set database path to: C:\Users\firmware\.stmcufinder\plugins\mcufinder//mcu/
2019-07-10 08:42:14,341 [INFO] DbBoardsDocs:82 - Set database path to: C:\Users\firmware\.stmcufinder\plugins\mcufinder//mcu/
2019-07-10 08:42:14,341 [INFO] DbBoardsJson:51 - Set database path to: C:\Users\firmware\.stmcufinder\plugins\mcufinder//mcu/
2019-07-10 08:42:14,435 [INFO] CrossReferenceDbSqlite:197 - Set database path to: C:\Users\firmware\.stmcufinder\plugins\mcufinder//mcu/cs/
2019-07-10 08:42:14,544 [INFO] RulesReader:52 - Compatibility file has been processed (156 Rules)
2019-07-10 08:42:14,622 [INFO] MicroXplorer:521 - Detected Java Version = 1.8.0_202
2019-07-10 08:42:14,622 [INFO] DbMcusXml:68 - Set database path to: C:\ST\STM32CubeIDE_1.0.1\STM32CubeIDE\plugins\com.st.stm32cube.common.mx_1.0.0.201906050926\\db\/mcu/
2019-07-10 08:42:14,622 [INFO] DbBoardsPdsc:54 - Set plugin database path to: C:\ST\STM32CubeIDE_1.0.1\STM32CubeIDE\plugins\com.st.stm32cube.common.mx_1.0.0.201906050926\\db\/plugins/boardmanager/
2019-07-10 08:42:14,622 [INFO] DbMcus:262 - Set plugin images path to: C:\ST\STM32CubeIDE_1.0.1\STM32CubeIDE\plugins\com.st.stm32cube.common.mx_1.0.0.201906050926\\db\/plugins/mcufinder/images/
2019-07-10 08:42:14,622 [INFO] DbBoards:225 - Set plugin images path to: C:\ST\STM32CubeIDE_1.0.1\STM32CubeIDE\plugins\com.st.stm32cube.common.mx_1.0.0.201906050926\\db\/plugins/mcufinder/images/
2019-07-10 08:42:14,622 [INFO] APIGFXSelector:72 - Set database path to: C:\ST\STM32CubeIDE_1.0.1\STM32CubeIDE\plugins\com.st.stm32cube.common.mx_1.0.0.201906050926\\db\/plugins/mcufinder/mcu/
2019-07-10 08:42:14,622 [WARN] DbFile:31 - Overriding database path with different value: C:\Users\firmware\.stmcufinder\plugins\mcufinder/ => C:\Users\firmware\.stmcufinder\plugins\mcufinder
2019-07-10 08:42:14,622 [INFO] DbMcusAds:72 - Set database path to: C:\Users\firmware\.stmcufinder\plugins\mcufinder//mcu/
2019-07-10 08:42:14,622 [WARN] DbFile:31 - Overriding database path with different value: C:\Users\firmware\.stmcufinder\plugins\mcufinder/ => C:\Users\firmware\.stmcufinder\plugins\mcufinder
2019-07-10 08:42:14,622 [INFO] DbMcusDocs:90 - Set database path to: C:\Users\firmware\.stmcufinder\plugins\mcufinder//mcu/
2019-07-10 08:42:14,622 [WARN] DbFile:31 - Overriding database path with different value: C:\Users\firmware\.stmcufinder\plugins\mcufinder/ => C:\Users\firmware\.stmcufinder\plugins\mcufinder
2019-07-10 08:42:14,622 [INFO] DbMcusJson:59 - Set database path to: C:\Users\firmware\.stmcufinder\plugins\mcufinder//mcu/
2019-07-10 08:42:14,622 [WARN] DbFile:31 - Overriding database path with different value: C:\Users\firmware\.stmcufinder\plugins\mcufinder/ => C:\Users\firmware\.stmcufinder\plugins\mcufinder
2019-07-10 08:42:14,622 [INFO] DbBoardsDocs:82 - Set database path to: C:\Users\firmware\.stmcufinder\plugins\mcufinder//mcu/
2019-07-10 08:42:14,622 [WARN] DbFile:31 - Overriding database path with different value: C:\Users\firmware\.stmcufinder\plugins\mcufinder/ => C:\Users\firmware\.stmcufinder\plugins\mcufinder
2019-07-10 08:42:14,622 [INFO] DbBoardsJson:51 - Set database path to: C:\Users\firmware\.stmcufinder\plugins\mcufinder//mcu/
2019-07-10 08:42:14,622 [WARN] DbFile:31 - Overriding database path with different value: C:\Users\firmware\.stmcufinder\plugins\mcufinder/ => C:\Users\firmware\.stmcufinder\plugins\mcufinder
2019-07-10 08:42:14,622 [WARN] DbFile:31 - Overriding database path with different value: C:\Users\firmware\.stmcufinder\plugins\mcufinder/ => C:\Users\firmware\.stmcufinder\plugins\mcufinder
2019-07-10 08:42:14,622 [INFO] CrossReferenceDbSqlite:197 - Set database path to: C:\Users\firmware\.stmcufinder\plugins\mcufinder//mcu/cs/
2019-07-10 08:42:14,685 [INFO] MainPanel:211 - HeapMemory: 268435456
2019-07-10 08:42:14,747 [INFO] DbMcusXml:68 - Set database path to: C:\ST\STM32CubeIDE_1.0.1\STM32CubeIDE\plugins\com.st.stm32cube.common.mx_1.0.0.201906050926\\db\/mcu/
2019-07-10 08:42:14,747 [INFO] DbBoardsPdsc:54 - Set plugin database path to: C:\ST\STM32CubeIDE_1.0.1\STM32CubeIDE\plugins\com.st.stm32cube.common.mx_1.0.0.201906050926\\db\/plugins/boardmanager/
2019-07-10 08:42:14,747 [INFO] DbMcus:262 - Set plugin images path to: C:\ST\STM32CubeIDE_1.0.1\STM32CubeIDE\plugins\com.st.stm32cube.common.mx_1.0.0.201906050926\\db\/plugins/mcufinder/images/
2019-07-10 08:42:14,747 [INFO] DbBoards:225 - Set plugin images path to: C:\ST\STM32CubeIDE_1.0.1\STM32CubeIDE\plugins\com.st.stm32cube.common.mx_1.0.0.201906050926\\db\/plugins/mcufinder/images/
2019-07-10 08:42:14,747 [INFO] APIGFXSelector:72 - Set database path to: C:\ST\STM32CubeIDE_1.0.1\STM32CubeIDE\plugins\com.st.stm32cube.common.mx_1.0.0.201906050926\\db\/plugins/mcufinder/mcu/
2019-07-10 08:42:14,747 [WARN] DbFile:31 - Overriding database path with different value: C:\Users\firmware\.stmcufinder\plugins\mcufinder/ => C:\Users\firmware\.stmcufinder\plugins\mcufinder
2019-07-10 08:42:14,747 [INFO] DbMcusAds:72 - Set database path to: C:\Users\firmware\.stmcufinder\plugins\mcufinder//mcu/
2019-07-10 08:42:14,747 [WARN] DbFile:31 - Overriding database path with different value: C:\Users\firmware\.stmcufinder\plugins\mcufinder/ => C:\Users\firmware\.stmcufinder\plugins\mcufinder
2019-07-10 08:42:14,747 [INFO] DbMcusDocs:90 - Set database path to: C:\Users\firmware\.stmcufinder\plugins\mcufinder//mcu/
2019-07-10 08:42:14,747 [WARN] DbFile:31 - Overriding database path with different value: C:\Users\firmware\.stmcufinder\plugins\mcufinder/ => C:\Users\firmware\.stmcufinder\plugins\mcufinder
2019-07-10 08:42:14,747 [INFO] DbMcusJson:59 - Set database path to: C:\Users\firmware\.stmcufinder\plugins\mcufinder//mcu/
2019-07-10 08:42:14,747 [WARN] DbFile:31 - Overriding database path with different value: C:\Users\firmware\.stmcufinder\plugins\mcufinder/ => C:\Users\firmware\.stmcufinder\plugins\mcufinder
2019-07-10 08:42:14,747 [INFO] DbBoardsDocs:82 - Set database path to: C:\Users\firmware\.stmcufinder\plugins\mcufinder//mcu/
2019-07-10 08:42:14,747 [WARN] DbFile:31 - Overriding database path with different value: C:\Users\firmware\.stmcufinder\plugins\mcufinder/ => C:\Users\firmware\.stmcufinder\plugins\mcufinder
2019-07-10 08:42:14,747 [INFO] DbBoardsJson:51 - Set database path to: C:\Users\firmware\.stmcufinder\plugins\mcufinder//mcu/
2019-07-10 08:42:14,747 [WARN] DbFile:31 - Overriding database path with different value: C:\Users\firmware\.stmcufinder\plugins\mcufinder/ => C:\Users\firmware\.stmcufinder\plugins\mcufinder
2019-07-10 08:42:14,747 [WARN] DbFile:31 - Overriding database path with different value: C:\Users\firmware\.stmcufinder\plugins\mcufinder/ => C:\Users\firmware\.stmcufinder\plugins\mcufinder
2019-07-10 08:42:14,747 [INFO] CrossReferenceDbSqlite:197 - Set database path to: C:\Users\firmware\.stmcufinder\plugins\mcufinder//mcu/cs/
2019-07-10 08:42:14,763 [INFO] ApplicationProperties:181 - Using Application install path: C:\ST\STM32CubeIDE_1.0.1\STM32CubeIDE\plugins\com.st.stm32cube.common.mx_1.0.0.201906050926
2019-07-10 08:42:14,779 [INFO] PluginManage:178 - Search for loadable plugins [exclusion list=]
2019-07-10 08:42:14,779 [INFO] PluginManage:292 - Check plugin analytics
2019-07-10 08:42:14,794 [INFO] PluginManage:342 - Loaded plugin analytics (category:tool,tabindex:-1)
2019-07-10 08:42:14,794 [INFO] PluginManage:292 - Check plugin clock
2019-07-10 08:42:14,810 [INFO] PluginManage:342 - Loaded plugin clock (category:base,tabindex:2)
2019-07-10 08:42:14,810 [INFO] PluginManage:292 - Check plugin ddr
2019-07-10 08:42:14,825 [INFO] PluginManage:342 - Loaded plugin ddr (category:tool,tabindex:6)
2019-07-10 08:42:14,825 [INFO] PluginManage:292 - Check plugin filemanager
2019-07-10 08:42:14,919 [INFO] PluginManage:342 - Loaded plugin filemanager (category:base,tabindex:10)
2019-07-10 08:42:14,919 [INFO] PluginManage:292 - Check plugin ipmanager
2019-07-10 08:42:15,154 [INFO] PluginManage:342 - Loaded plugin ipmanager (category:base,tabindex:5)
2019-07-10 08:42:15,154 [INFO] PluginManage:292 - Check plugin pinoutandconfiguration
2019-07-10 08:42:15,388 [INFO] PluginManage:342 - Loaded plugin pinoutandconfiguration (category:base,tabindex:1)
2019-07-10 08:42:15,388 [INFO] PluginManage:292 - Check plugin pinoutconfig
2019-07-10 08:42:15,622 [INFO] PluginManage:342 - Loaded plugin pinoutconfig (category:base,tabindex:0)
2019-07-10 08:42:15,622 [INFO] PluginManage:292 - Check plugin power
2019-07-10 08:42:15,622 [INFO] PluginManage:342 - Loaded plugin power (category:power,tabindex:4)
2019-07-10 08:42:15,622 [INFO] PluginManage:292 - Check plugin projectmanager
2019-07-10 08:42:15,638 [INFO] PluginManage:342 - Loaded plugin projectmanager (category:projectmanager,tabindex:3)
2019-07-10 08:42:15,638 [INFO] PluginManage:292 - Check plugin thirdparty
2019-07-10 08:42:16,106 [INFO] ThirdPartyDb:293 - Open Third Party DataBase File (C:/Users/firmware/.stm32cubemx/plugins/thirdparty/db/thirdparties_db.xml) : 0 ms. number of Sw pack : 5
2019-07-10 08:42:16,122 [INFO] PluginManage:342 - Loaded plugin thirdparty (category:base,tabindex:-1)
2019-07-10 08:42:16,122 [INFO] PluginManage:292 - Check plugin tools
2019-07-10 08:42:16,138 [INFO] PluginManage:342 - Loaded plugin tools (category:base,tabindex:7)
2019-07-10 08:42:16,138 [INFO] PluginManage:292 - Check plugin updater
2019-07-10 08:42:16,153 [INFO] PluginManage:342 - Loaded plugin updater (category:base,tabindex:12)
2019-07-10 08:42:16,153 [INFO] PluginManage:265 - PluginManage : Loaded plugins [12]
2019-07-10 08:42:16,309 [INFO] PinOutPanel:1361 - setPackage(No Configuration,No Configuration)
2019-07-10 08:42:16,450 [INFO] PluginManager:200 - loadIPPluginJar : add adc
2019-07-10 08:42:16,466 [INFO] PluginManager:200 - loadIPPluginJar : add aes
2019-07-10 08:42:16,497 [INFO] PluginManager:200 - loadIPPluginJar : add can
2019-07-10 08:42:16,513 [INFO] PluginManager:200 - loadIPPluginJar : add comp
2019-07-10 08:42:16,528 [INFO] PluginManager:200 - loadIPPluginJar : add cryp
2019-07-10 08:42:16,559 [INFO] PluginManager:200 - loadIPPluginJar : add dfsdm
2019-07-10 08:42:16,622 [INFO] PluginManager:200 - loadIPPluginJar : add dma
2019-07-10 08:42:16,622 [INFO] PluginManager:200 - loadIPPluginJar : add fatfs
2019-07-10 08:42:16,684 [INFO] PluginManager:200 - loadIPPluginJar : add fmc
2019-07-10 08:42:16,952 [INFO] PluginManager:200 - loadIPPluginJar : add freertos
2019-07-10 08:42:16,952 [INFO] PluginManager:200 - loadIPPluginJar : add genericplugin
2019-07-10 08:42:17,030 [INFO] PluginManager:200 - loadIPPluginJar : add gfxmmu
2019-07-10 08:42:17,124 [INFO] PluginManager:200 - loadIPPluginJar : add gfxsimulator
2019-07-10 08:42:17,218 [INFO] PluginManager:200 - loadIPPluginJar : add gic
2019-07-10 08:42:17,311 [INFO] PluginManager:200 - loadIPPluginJar : add gpio
2019-07-10 08:42:17,343 [INFO] PluginManager:200 - loadIPPluginJar : add hash
2019-07-10 08:42:17,389 [INFO] PluginManager:200 - loadIPPluginJar : add i2c
2019-07-10 08:42:17,405 [INFO] PluginManager:200 - loadIPPluginJar : add i2s
2019-07-10 08:42:17,530 [INFO] PluginManager:200 - loadIPPluginJar : add ipddr
2019-07-10 08:42:17,546 [INFO] PluginManager:200 - loadIPPluginJar : add ltdc
2019-07-10 08:42:17,639 [INFO] PluginManager:200 - loadIPPluginJar : add mdma
2019-07-10 08:42:17,717 [INFO] PluginManager:200 - loadIPPluginJar : add nvic
2019-07-10 08:42:17,749 [INFO] PluginManager:200 - loadIPPluginJar : add opamp
2019-07-10 08:42:17,780 [INFO] PluginManager:200 - loadIPPluginJar : add pdm2pcm
2019-07-10 08:42:17,858 [INFO] PluginManager:200 - loadIPPluginJar : add plateformsettings
2019-07-10 08:42:17,874 [INFO] PluginManager:200 - loadIPPluginJar : add quadspi
2019-07-10 08:42:18,155 [INFO] PluginManager:200 - loadIPPluginJar : add resmgrutility
2019-07-10 08:42:18,217 [INFO] PluginManager:200 - loadIPPluginJar : add sai
2019-07-10 08:42:18,233 [INFO] PluginManager:200 - loadIPPluginJar : add spi
2019-07-10 08:42:18,264 [INFO] PluginManager:200 - loadIPPluginJar : add stm32_wpan
2019-07-10 08:42:18,264 [INFO] PluginManager:200 - loadIPPluginJar : add tim
2019-07-10 08:42:18,327 [INFO] PluginManager:200 - loadIPPluginJar : add touchsensing
2019-07-10 08:42:18,327 [INFO] PluginManager:200 - loadIPPluginJar : add tracer_emb
2019-07-10 08:42:18,342 [INFO] PluginManager:200 - loadIPPluginJar : add ts
2019-07-10 08:42:18,342 [INFO] PluginManager:200 - loadIPPluginJar : add tsc
2019-07-10 08:42:18,342 [INFO] PluginManager:200 - loadIPPluginJar : add ucpd
2019-07-10 08:42:18,374 [INFO] PluginManager:200 - loadIPPluginJar : add usart
2019-07-10 08:42:19,089 [FATAL] Updater:277 - Updater called before beeing initialized
2019-07-10 08:42:19,136 [FATAL] Updater:277 - Updater called before beeing initialized
2019-07-10 08:42:19,136 [ERROR] IntegrityCheckThread:227 - Cannot obtain thirdParties list 21
2019-07-10 08:42:19,136 [ERROR] IntegrityCheckThread:96 - Unexpected exception IntegrityCheckThread Thread: Updater error
2019-07-10 08:42:19,136 [ERROR] LogOutputStream:66 - [STDERR_REDIRECT] java.lang.Exception: Updater error
2019-07-10 08:42:19,136 [ERROR] LogOutputStream:66 - [STDERR_REDIRECT] 	at com.st.microxplorer.plugins.thirdparty.engine.IntegrityCheckThread.getUpdaterThirdPartyList(IntegrityCheckThread.java:239)
2019-07-10 08:42:19,136 [ERROR] LogOutputStream:66 - [STDERR_REDIRECT] 	at com.st.microxplorer.plugins.thirdparty.engine.IntegrityCheckThread.run(IntegrityCheckThread.java:61)
2019-07-10 08:42:19,136 [INFO] ThirdPartyDb:263 - Close Third Party DataBase File (C:/Users/firmware/.stm32cubemx/plugins/thirdparty/db/thirdparties_db.xml)
2019-07-10 08:42:19,276 [FATAL] Updater:277 - Updater called before beeing initialized
2019-07-10 08:42:19,276 [INFO] PinOutPanel:1361 - setPackage(No Configuration,No Configuration)
2019-07-10 08:42:19,276 [FATAL] Updater:277 - Updater called before beeing initialized
2019-07-10 08:42:19,292 [INFO] Updater:860 - Updater Version found : 5.2.1
2019-07-10 08:42:19,292 [INFO] ApplicationProperties:181 - Using Application install path: C:\ST\STM32CubeIDE_1.0.1\STM32CubeIDE\plugins\com.st.stm32cube.common.mx_1.0.0.201906050926
2019-07-10 08:42:20,588 [INFO] MainUpdater:2032 - connection check result : 10
2019-07-10 08:42:20,588 [INFO] MainUpdater:223 - Updater Check For Update Now.
2019-07-10 08:42:20,588 [INFO] MicroXplorer:401 - Change Database Version : DB.5.0.21
2019-07-10 08:42:20,620 [INFO] CheckServerUpdateThread:121 - End of CheckServer Thread
2019-07-10 08:42:20,792 [INFO] MainUpdater:2032 - connection check result : 10
2019-07-10 08:42:20,792 [INFO] LogOutputStream:68 - [STDOUT_REDIRECT] Successfull proxy connection.
2019-07-10 08:42:20,901 [INFO] McuFinderGlobals:40 - Set McuFinder mode to 2 (CubeIDE integrated)
2019-07-10 08:42:20,916 [INFO] FinderPluginLoader:85 - Searching for filters in installed packs
2019-07-10 08:42:20,916 [INFO] DbMcusXml:106 - Load MCU database from C:\ST\STM32CubeIDE_1.0.1\STM32CubeIDE\plugins\com.st.stm32cube.common.mx_1.0.0.201906050926\\db\/mcu/families.xml
2019-07-10 08:42:21,526 [INFO] DbMcusJson:87 - JSON generation date=Fri Jun 21 12:28:09 CEST 2019 (1561112889)
2019-07-10 08:42:22,291 [INFO] DbMcus:192 - Found 1486 MCUs (1445 are supported by CubeMX, 1445 are visible in CubeMX)
2019-07-10 08:42:22,307 [INFO] ApiDb:158 - Load user favorites file C:\Users\firmware/.stm32cubeide/favorites.mcus.txt: 0 item(s)
2019-07-10 08:42:22,307 [INFO] ApiDb:163 - User favorites MCUs=[]
2019-07-10 08:42:22,307 [INFO] DbMcus:203 - Set 0 / 0 favorites MCUs
2019-07-10 08:42:22,728 [INFO] DbMcusAds:130 - JSON generation date=Wed Feb 20 17:46:15 CET 2019 (1550681175)
2019-07-10 08:42:22,728 [INFO] LoadUrlFilesThread:147 - End of LoadServerUrlFiles without Thread
2019-07-10 08:42:22,760 [INFO] McuDetailPanel:180 - Set advertising image to C:/Users/firmware/STM32Cube/Repository/\PRSTM32MP10219-01-med.jpg
2019-07-10 08:42:23,150 [INFO] McuFilterPanel:282 - Update 0 favorites MCUs
2019-07-10 08:42:23,275 [INFO] DbBoardsPdsc:92 - Found 18 items
2019-07-10 08:42:23,275 [INFO] DbBoardsPdsc:92 - Found 9 items
2019-07-10 08:42:23,291 [INFO] DbBoardsPdsc:92 - Found 27 items
2019-07-10 08:42:23,291 [INFO] DbBoardsPdsc:92 - Found 1 items
2019-07-10 08:42:23,306 [INFO] DbBoardsPdsc:92 - Found 35 items
2019-07-10 08:42:23,306 [INFO] DbBoardsPdsc:92 - Found 37 items
2019-07-10 08:42:23,322 [INFO] DbBoardsJson:79 - JSON generation date=Thu Jul 04 16:02:38 CEST 2019 (1562248958)
2019-07-10 08:42:23,338 [INFO] DbBoards:120 - Found 127 boards (126 are supported by CubeMX)
2019-07-10 08:42:23,338 [INFO] DbBoardsDocs:119 - JSON generation date=Fri Jun 21 12:28:09 CEST 2019 (1561112889)
2019-07-10 08:42:23,338 [INFO] DbBoardsDocs:55 - Found 151 boards documents
2019-07-10 08:42:23,338 [WARN] DbBoards:130 - board NUCLEO-H743ZI2 has no document id list !
2019-07-10 08:42:23,338 [WARN] DbBoards:130 - board NUCLEO-G031K8 has no document id list !
2019-07-10 08:42:23,338 [WARN] DbBoards:130 - board P-NUCLEO-WB55-Nucleo has no document id list !
2019-07-10 08:42:23,338 [WARN] DbBoards:130 - board P-NUCLEO-WB55-USBDongle has no document id list !
2019-07-10 08:42:23,338 [WARN] DbBoards:130 - board P-NUCLEO-WB55 has no document id list !
2019-07-10 08:42:23,353 [WARN] DbBoards:130 - board STM32F401C-DISCO has no document id list !
2019-07-10 08:42:23,353 [WARN] DbBoards:130 - board STM32F769I-DISC1 has no document id list !
2019-07-10 08:42:23,353 [WARN] DbBoards:130 - board STM32F7308-DISCO has no document id list !
2019-07-10 08:42:23,353 [WARN] DbBoards:130 - board STM32L-DISCOVERY has no document id list !
2019-07-10 08:42:23,353 [WARN] DbBoards:130 - board STM32G0316-DISCO has no document id list !
2019-07-10 08:42:23,353 [WARN] DbBoards:130 - board STM32H747I-DISC1 has no document id list !
2019-07-10 08:42:23,353 [WARN] DbBoards:130 - board STM32303C-EVAL has no document id list !
2019-07-10 08:42:23,353 [WARN] DbBoards:130 - board STM32L152D-EVAL has no document id list !
2019-07-10 08:42:23,353 [WARN] DbBoards:130 - board STM32H743I-EVAL2 has no document id list !
2019-07-10 08:42:23,353 [WARN] DbBoards:130 - board STM32H753I-EVAL2 has no document id list !
2019-07-10 08:42:23,353 [WARN] DbBoards:130 - board STM32H747I-EVAL has no document id list !
2019-07-10 08:42:23,353 [WARN] DbBoards:130 - board STM32H757I-EVAL has no document id list !
2019-07-10 08:42:23,353 [WARN] DbBoards:130 - board STM32G474E-EVAL1 has no document id list !
2019-07-10 08:42:23,963 [INFO] ApiDb:158 - Load user favorites file C:\Users\firmware/.stm32cubeide/favorites.boards.txt: 0 item(s)
2019-07-10 08:42:23,963 [INFO] ApiDb:163 - User favorites Boards=[]
2019-07-10 08:42:23,963 [INFO] DbBoards:202 - Set 0 / 0 favorites Boards
2019-07-10 08:42:24,009 [INFO] LoadUrlFilesThread:147 - End of LoadServerUrlFiles without Thread
2019-07-10 08:42:24,009 [INFO] BoardDetailPanel:179 - Set advertising image to C:/Users/firmware/STM32Cube/Repository/\PRSTM32MP10219-01-med.jpg
2019-07-10 08:42:24,041 [INFO] BoardFilterPanel:212 - Update 0 favorites Boards
2019-07-10 08:42:24,212 [INFO] CrossSelectorPresenter:1239 - Cross Selector saved comparison directory: C:\Users\firmware\.stmcufinder\plugins\mcufinder\mcu\cs_comparisons_mx
2019-07-10 09:03:17,356 [INFO] MainUpdater:2032 - connection check result : 10
2019-07-10 09:03:17,356 [INFO] LogOutputStream:68 - [STDOUT_REDIRECT] Successfull proxy connection.
2019-07-10 09:03:17,372 [INFO] McuFinderGlobals:40 - Set McuFinder mode to 2 (CubeIDE integrated)
2019-07-10 09:03:17,372 [INFO] FinderPluginLoader:85 - Searching for filters in installed packs
2019-07-10 09:03:17,684 [INFO] LoadUrlFilesThread:147 - End of LoadServerUrlFiles without Thread
2019-07-10 09:03:17,684 [INFO] McuDetailPanel:180 - Set advertising image to C:/Users/firmware/STM32Cube/Repository/\PRSTM32MP10219-01-med.jpg
2019-07-10 09:03:17,825 [INFO] McuFilterPanel:282 - Update 0 favorites MCUs
2019-07-10 09:03:17,903 [INFO] LoadUrlFilesThread:147 - End of LoadServerUrlFiles without Thread
2019-07-10 09:03:17,903 [INFO] BoardDetailPanel:179 - Set advertising image to C:/Users/firmware/STM32Cube/Repository/\PRSTM32MP10219-01-med.jpg
2019-07-10 09:03:17,903 [INFO] BoardFilterPanel:212 - Update 0 favorites Boards
2019-07-10 09:03:17,919 [INFO] CrossSelectorPresenter:1239 - Cross Selector saved comparison directory: C:\Users\firmware\.stmcufinder\plugins\mcufinder\mcu\cs_comparisons_mx
